Modul 1: Pengenalan Bahasa R
…
# Train
df_rf <-  rand_forest(trees = 100, mode = "classification") %>%
  set_engine("randomForest") %>%
  fit(y ~ ., data = df_training)

# Predict
predict(df_rf, df_testing)

## # A tibble: 13,563 x 1
##    .pred_class
##    <fct>      
##  1 no         
##  2 no         
##  3 no         
##  4 no         
##  5 no         
##  6 no         
##  7 no         
##  8 no         
##  9 no         
## 10 no         
## # ... with 13,553 more rows
…
